<svg id="fd56557f-f963-431b-8f4d-70a4bd166c12" data-name="Capa 1" xmlns="http://www.w3.org/2000/svg" xmlns:xlink="http://www.w3.org/1999/xlink" width="40" height="40" viewBox="0 0 40 40">
  <defs>
    <linearGradient id="a2aae14d-4b99-4093-9264-cfddf5e41994" data-name="Babybook 4" x1="12" y1="10.5" x2="31" y2="10.5" gradientUnits="userSpaceOnUse">
      <stop offset="0" stop-color="#b35cd4"/>
      <stop offset="0.5" stop-color="#6e97c6"/>
      <stop offset="1" stop-color="#9edbbf"/>
    </linearGradient>
    <linearGradient id="b2d79b20-c95a-4200-8371-ea140e63c308" x1="8" y1="20" x2="32" y2="20" xlink:href="#a2aae14d-4b99-4093-9264-cfddf5e41994"/>
  </defs>
  <g>
    <path d="M12.5,10a.5.5,0,0,0,0,1h18a.5.5,0,0,0,0-1Z" fill="url(#a2aae14d-4b99-4093-9264-cfddf5e41994)"/>
    <path d="M30.58,13H11.69C10.35,13,9,12.29,9,10.71A2.7,2.7,0,0,1,11.69,8H31.5a.5.5,0,0,0,0-1H11.69A3.7,3.7,0,0,0,8,10.71V29.29A3.7,3.7,0,0,0,11.69,33H31a1,1,0,0,0,1-1V14.41A1.47,1.47,0,0,0,30.58,13ZM27.41,24.65a5.09,5.09,0,0,1-.25.6,7.66,7.66,0,0,1-5.78,3.4l-.59,0-.59,0a7.66,7.66,0,0,1-5.78-3.4,5.09,5.09,0,0,1-.25-.6,1.43,1.43,0,0,1,.73-1.93c.59-.25,1.38-.22,1.54.08l.06.1a4.66,4.66,0,0,0,4,2.82l.32,0,.32,0a4.66,4.66,0,0,0,4-2.82l.06-.1c.19-.34.95-.33,1.54-.08A1.43,1.43,0,0,1,27.41,24.65Z" fill="url(#b2d79b20-c95a-4200-8371-ea140e63c308)"/>
  </g>
</svg>
