<svg xmlns="http://www.w3.org/2000/svg" xmlns:xlink="http://www.w3.org/1999/xlink" width="40" height="40" viewBox="0 0 40 40">
  <defs>
    <linearGradient id="fcb3b1d2-9a83-47e6-b3e8-758873474d24" x1="8.36" y1="18.94" x2="31.64" y2="18.94" gradientUnits="userSpaceOnUse">
      <stop offset="0.05" stop-color="#c9dbf0"/>
      <stop offset="0.2" stop-color="#bccfee"/>
      <stop offset="0.48" stop-color="#9ab1ea"/>
      <stop offset="0.62" stop-color="#87a0e7"/>
      <stop offset="0.65" stop-color="#849ce7"/>
      <stop offset="1" stop-color="#6a7ae3"/>
    </linearGradient>
    <linearGradient id="a981bd55-c561-476c-8bf8-55335c2ce665" x1="19.61" y1="23.76" x2="23.96" y2="11.82" gradientUnits="userSpaceOnUse">
      <stop offset="0.07" stop-opacity="0"/>
      <stop offset="1"/>
    </linearGradient>
    <linearGradient id="a3b386ee-c987-4f52-8ffd-8aa7a3c60c8a" x1="27.17" y1="26.44" x2="27.17" y2="17.49" gradientUnits="userSpaceOnUse">
      <stop offset="0.42" stop-opacity="0"/>
      <stop offset="1"/>
    </linearGradient>
    <linearGradient id="a48a77cb-0c9a-414b-87e7-a353732d06c0" x1="14.62" y1="21.06" x2="14.62" y2="14.34" gradientUnits="userSpaceOnUse">
      <stop offset="0.21" stop-opacity="0"/>
      <stop offset="1"/>
    </linearGradient>
    <linearGradient id="a7651d89-29d8-4c7a-b232-03813546d042" x1="13.1" y1="26.44" x2="13.1" y2="16.95" gradientUnits="userSpaceOnUse">
      <stop offset="0.49" stop-opacity="0"/>
      <stop offset="1"/>
    </linearGradient>
  </defs>
  <g style="isolation: isolate">
    <g id="adb0e4dc-39b0-435d-8e12-96348a3c71b9" data-name="Capa 1">
      <g>
        <circle cx="20" cy="20" r="17.5" fill="#fff"/>
        <g id="fe76da06-ef69-48d8-a40f-cd0f05e9e27e" data-name="iCloud-logo-2014-present-without-background">
          <g>
            <path d="M31.64,22a4.47,4.47,0,0,0-3.51-4.37,6.35,6.35,0,0,0-11.92-2.85,3.3,3.3,0,0,0-1.59-.41,3.37,3.37,0,0,0-3.34,3A4.75,4.75,0,0,0,13,26.44H27.47A4.47,4.47,0,0,0,31.64,22Z" fill="url(#fcb3b1d2-9a83-47e6-b3e8-758873474d24)"/>
            <path d="M28.13,17.79a6.35,6.35,0,1,1-6.35-6.35A6.35,6.35,0,0,1,28.13,17.79Z" opacity="0.3" fill="url(#a981bd55-c561-476c-8bf8-55335c2ce665)" style="mix-blend-mode: overlay"/>
            <path d="M31.64,22a4.48,4.48,0,1,1-4.47-4.48A4.47,4.47,0,0,1,31.64,22Z" opacity="0.25" fill="url(#a3b386ee-c987-4f52-8ffd-8aa7a3c60c8a)" style="mix-blend-mode: overlay"/>
            <path d="M18,17.7a3.36,3.36,0,1,1-3.35-3.36A3.35,3.35,0,0,1,18,17.7Z" opacity="0.5" fill="url(#a48a77cb-0c9a-414b-87e7-a353732d06c0)" style="mix-blend-mode: overlay"/>
            <path d="M17.85,21.69A4.75,4.75,0,1,1,13.1,17,4.74,4.74,0,0,1,17.85,21.69Z" opacity="0.35" fill="url(#a7651d89-29d8-4c7a-b232-03813546d042)" style="mix-blend-mode: overlay"/>
          </g>
        </g>
      </g>
    </g>
  </g>
</svg>
