<svg id="ae7ce006-9f5a-4e69-99fa-9736ccfdd8db" data-name="Capa 1" xmlns="http://www.w3.org/2000/svg" width="40" height="40" viewBox="0 0 40 40">
  <path d="M23.29,23.29a9.25,9.25,0,1,1,0-13.08A9.25,9.25,0,0,1,23.29,23.29Zm-.5.89,1.93,1.91-.67.66L29.29,32A1.89,1.89,0,0,0,32,32h0a1.85,1.85,0,0,0,0-2.63l-5.24-5.2-.67.66-1.92-1.91" fill="none" stroke="#666" stroke-linecap="round" stroke-linejoin="round"/>
</svg>
