<svg id="a69b2113-3dab-41f1-9849-51bc854ed838" data-name="Capa 1" xmlns="http://www.w3.org/2000/svg" width="40" height="40" viewBox="0 0 40 40">
  <path d="M32.5,32.5V31.14a8.48,8.48,0,0,0-8.31-8.64H15.81A8.48,8.48,0,0,0,7.5,31.14V32.5M25.75,13.25A5.75,5.75,0,1,1,20,7.5,5.74,5.74,0,0,1,25.75,13.25Z" fill="none" stroke="#d9d9d9" stroke-linecap="round" stroke-miterlimit="10"/>
</svg>
