<svg id="b09470f3-f2b3-42e4-9109-3d52bee53968" data-name="Capa 1" xmlns="http://www.w3.org/2000/svg" xmlns:xlink="http://www.w3.org/1999/xlink" width="40" height="40" viewBox="0 0 40 40">
  <defs>
    <linearGradient id="e4ec3842-edd5-4405-b263-9a26c8d3cb15" data-name="Babybook 4" x1="7" y1="20" x2="33" y2="20" gradientUnits="userSpaceOnUse">
      <stop offset="0" stop-color="#b35cd4"/>
      <stop offset="0.5" stop-color="#6e97c6"/>
      <stop offset="1" stop-color="#9edbbf"/>
    </linearGradient>
  </defs>
  <path d="M8.36,33a1.37,1.37,0,0,1-1.23-1.95l5.14-10.89a.36.36,0,0,0,0-.32L7.13,9A1.36,1.36,0,0,1,9,7.15L32.25,18.78a1.37,1.37,0,0,1,0,2.44L9,32.85A1.38,1.38,0,0,1,8.36,33Zm-.77-1.74h0Z" fill="url(#e4ec3842-edd5-4405-b263-9a26c8d3cb15)"/>
</svg>
