<svg id="aa0bf720-1826-42a0-b75b-484ddc71645c" data-name="Capa 1" xmlns="http://www.w3.org/2000/svg" xmlns:xlink="http://www.w3.org/1999/xlink" width="40" height="40" viewBox="0 0 40 40">
  <defs>
    <linearGradient id="b7c2e6a1-fa3e-43fb-9fb0-476b9fc9bdb9" data-name="Babybook 4" x1="7" y1="20" x2="33" y2="20" gradientUnits="userSpaceOnUse">
      <stop offset="0" stop-color="#b35cd4"/>
      <stop offset="0.5" stop-color="#6e97c6"/>
      <stop offset="1" stop-color="#9edbbf"/>
    </linearGradient>
  </defs>
  <path d="M32.5,20A12.5,12.5,0,1,1,20,7.5,12.5,12.5,0,0,1,32.5,20Zm-12-6.5V25.81M13.84,20H26.16" fill="none" stroke-linecap="round" stroke-linejoin="round" stroke="url(#b7c2e6a1-fa3e-43fb-9fb0-476b9fc9bdb9)"/>
</svg>
