<svg id="a2c3e828-98ef-4cee-85b4-85989c55b1ec" data-name="Capa 1" xmlns="http://www.w3.org/2000/svg" xmlns:xlink="http://www.w3.org/1999/xlink" width="40" height="40" viewBox="0 0 40 40">
  <defs>
    <linearGradient id="b677e19c-dfa4-455d-8e6d-a37e4a3b62d3" data-name="Babybook 4" x1="7" y1="20" x2="33" y2="20" gradientUnits="userSpaceOnUse">
      <stop offset="0" stop-color="#b35cd4"/>
      <stop offset="0.5" stop-color="#6e97c6"/>
      <stop offset="1" stop-color="#9edbbf"/>
    </linearGradient>
  </defs>
  <path d="M7.59,31.26l5.13-10.89a.87.87,0,0,0,0-.74L7.59,8.74A.87.87,0,0,1,8.76,7.59L32,19.23a.86.86,0,0,1,0,1.54L8.76,32.41A.87.87,0,0,1,7.59,31.26Z" fill="none" stroke-linecap="round" stroke-linejoin="round" stroke="url(#b677e19c-dfa4-455d-8e6d-a37e4a3b62d3)"/>
</svg>
