<svg id="e1284976-18f5-4dd8-be74-76f254eb5bff" data-name="Capa 1" xmlns="http://www.w3.org/2000/svg" width="24" height="24" viewBox="0 0 24 24">
  <g>
    <rect x="11" y="4.4" width="2" height="15.2" transform="translate(-4.97 12) rotate(-45)" fill="#f5f5f5"/>
    <path d="M12,6a6,6,0,1,1-6,6,6,6,0,0,1,6-6m0-2a8,8,0,1,0,8,8,8,8,0,0,0-8-8Z" fill="#f5f5f5"/>
  </g>
</svg>
