<svg id="af8aace0-a7e7-41cd-b9a4-87e754300954" data-name="Capa 1" xmlns="http://www.w3.org/2000/svg" width="24" height="24" viewBox="0 0 24 24">
  <polygon points="19.5 5.92 18.08 4.5 12 10.58 5.92 4.5 4.5 5.92 10.58 12 4.5 18.08 5.92 19.5 12 13.42 18.08 19.5 19.5 18.08 13.42 12 19.5 5.92" fill="#f5f5f5"/>
</svg>
